$ qmeshcontainer -mwd
Welcome to Ubuntu 16.04.3 LTS (GNU/Linux 3.13.0-55-generic x86_64)
This is a qmesh container based on image qmesh1.0.2_ubuntu16.04_qgisltr_gmsh3.0.4. Exit with `exit` or Ctrl+d 
For more information visit https://www.qmesh.org
username@qmesh_container_26af957e2df4:~$
